TASK1/source/jtag_tap_tb.vcd
$date
	Wed May 27 20:28:41 2026
$end
$version
	Icarus Verilog
$end
$timescale
	1ps
$end
$scope module jtag_tap_tb $end
$var wire 1 ! upd_dr $end
$var wire 4 " tap_ir [3:0] $end
$var wire 1 # shift_dr $end
$var wire 1 $ cap_dr $end
$var wire 1 % TDO $end
$var reg 1 & TCK $end
$var reg 1 ' TDI $end
$var reg 1 ( TMS $end
$var reg 1 ) TRST_N $end
$var reg 64 * captured [63:0] $end
$var reg 32 + idcode_out [31:0] $end
$var integer 32 , fail_count [31:0] $end
$var integer 32 - pass_count [31:0] $end
$scope module dut $end
$var wire 1 & TCK $end
$var wire 1 ' TDI $end
$var wire 1 ( TMS $end
$var wire 1 ) TRST_N $end
$var wire 1 $ tap_capture_dr_o $end
$var wire 4 . tap_ir_o [3:0] $end
$var wire 1 # tap_shift_dr_o $end
$var wire 1 ! tap_update_dr_o $end
$var wire 1 / state_update_ir $end
$var wire 1 0 state_update_dr $end
$var wire 1 1 state_shift_ir $end
$var wire 1 2 state_shift_dr $end
$var wire 1 3 state_capture_ir $end
$var wire 1 4 state_capture_dr $end
$var reg 1 % TDO $end
$var reg 1 5 bypass_bit $end
$var reg 32 6 idcode_shift [31:0] $end
$var reg 4 7 ir_reg [3:0] $end
$var reg 4 8 ir_shift [3:0] $end
$var reg 4 9 tap_state [3:0] $end
$var reg 1 : tdo_mux $end
$scope function next_state $end
$var reg 4 ; current [3:0] $end
$var reg 1 < tms $end
$upscope $end
$upscope $end
$scope begin $unm_blk_28 $end
$var reg 8 = tdi_pattern [7:0] $end
$var reg 8 > tdo_pattern [7:0] $end
$var integer 32 ? j [31:0] $end
$upscope $end
$scope begin $unm_blk_32 $end
$var reg 22 @ tms_seq [21:0] $end
$upscope $end
$scope task exit1_to_rti $end
$upscope $end
$scope task goto_shift_dr $end
$upscope $end
$scope task goto_tlr $end
$var integer 32 A i [31:0] $end
$upscope $end
$scope task load_ir $end
$var reg 4 B instr [3:0] $end
$var integer 32 C i [31:0] $end
$upscope $end
$scope task shift_bits $end
$var reg 64 D tdi_data [63:0] $end
$var reg 64 E tdo_data [63:0] $end
$var integer 32 F i [31:0] $end
$var integer 32 G n [31:0] $end
$upscope $end
$scope task tck_cycle $end
$var reg 1 H tdi_val $end
$var reg 1 I tms_val $end
$upscope $end
$upscope $end
$enddefinitions $end
#0
$dumpvars
xI
xH
bx G
bx F
bx E
bx D
bx C
bx B
bx A
bx @
bx ?
bx >
bx =
x<
bx ;
x:
bx 9
bx 8
bx 7
bx 6
x5
x4
x3
x2
x1
x0
x/
bx .
b0 -
b0 ,
bx +
bx *
0)
1(
0'
0&
x%
x$
x#
bx "
x!
$end
#5000
1:
0$
04
0#
02
0!
00
03
01
0/
b0 9
b1 "
b1 .
b1 7
b1 8
b1110010101111111000000011 6
05
1&
#10000
1%
0&
#12000
1)
#14000
0H
0I
b1 -
#15000
b0 ;
1<
1&
#20000
0(
0&
#25000
b1 9
0<
1&
#26000
1I
#30000
1(
0&
#35000
b10 9
b1 ;
1<
1&
#40000
0&
#45000
b1001 9
b10 ;
1&
#46000
b0 A
#50000
0&
#55000
b0 9
b1001 ;
1&
#56000
b1 A
#60000
0&
#65000
b0 ;
1&
#66000
b10 A
#70000
0&
#75000
1&
#76000
b11 A
#80000
0&
#85000
1&
#86000
b100 A
#90000
0&
#95000
1&
#96000
0I
b10 -
b101 A
#100000
0(
0&
#105000
b1 9
0<
1&
#106000
1I
#110000
1(
0&
#115000
b10 9
b1 ;
1<
1&
#116000
0I
#120000
0(
0&
#125000
1$
14
b11 9
b10 ;
0<
1&
#130000
0&
#135000
0$
04
1#
12
b100 9
b11 ;
1&
#136000
b0 F
b0 E
b0 D
b100000 G
#140000
0&
#145000
b111001010111111100000001 6
b100 ;
1&
#146000
b1 F
b1 E
#150000
0&
#155000
0:
b11100101011111110000000 6
1&
#156000
b10 F
b11 E
#160000
0%
0&
#165000
b1110010101111111000000 6
1&
#166000
b11 F
#170000
0&
#175000
b111001010111111100000 6
1&
#176000
b100 F
#180000
0&
#185000
b11100101011111110000 6
1&
#186000
b101 F
#190000
0&
#195000
b1110010101111111000 6
1&
#196000
b110 F
#200000
0&
#205000
b111001010111111100 6
1&
#206000
b111 F
#210000
0&
#215000
b11100101011111110 6
1&
#216000
b1000 F
#220000
0&
#225000
1:
b1110010101111111 6
1&
#226000
b1001 F
#230000
1%
0&
#235000
b111001010111111 6
1&
#236000
b1010 F
b1000000011 E
#240000
0&
#245000
b11100101011111 6
1&
#246000
b1011 F
b11000000011 E
#250000
0&
#255000
b1110010101111 6
1&
#256000
b1100 F
b111000000011 E
#260000
0&
#265000
b111001010111 6
1&
#266000
b1101 F
b1111000000011 E
#270000
0&
#275000
b11100101011 6
1&
#276000
b1110 F
b11111000000011 E
#280000
0&
#285000
b1110010101 6
1&
#286000
b1111 F
b111111000000011 E
#290000
0&
#295000
0:
b111001010 6
1&
#296000
b10000 F
b1111111000000011 E
#300000
0%
0&
#305000
1:
b11100101 6
1&
#306000
b10001 F
#310000
1%
0&
#315000
0:
b1110010 6
1&
#316000
b10010 F
b101111111000000011 E
#320000
0%
0&
#325000
1:
b111001 6
1&
#326000
b10011 F
#330000
1%
0&
#335000
0:
b11100 6
1&
#336000
b10100 F
b10101111111000000011 E
#340000
0%
0&
#345000
b1110 6
1&
#346000
b10101 F
#350000
0&
#355000
1:
b111 6
1&
#356000
b10110 F
#360000
1%
0&
#365000
b11 6
1&
#366000
b10111 F
b10010101111111000000011 E
#370000
0&
#375000
b1 6
1&
#376000
b11000 F
b110010101111111000000011 E
#380000
0&
#385000
0:
b0 6
1&
#386000
b11001 F
b1110010101111111000000011 E
#390000
0%
0&
#395000
1&
#396000
b11010 F
#400000
0&
#405000
1&
#406000
b11011 F
#410000
0&
#415000
1&
#416000
b11100 F
#420000
0&
#425000
1&
#426000
b11101 F
#430000
0&
#435000
1&
#436000
b11110 F
#440000
0&
#445000
1&
#446000
1I
b11111 F
#450000
1(
0&
#455000
1:
0#
02
b101 9
1<
1&
#456000
b1110010101111111000000011 +
b1110010101111111000000011 *
b100000 F
#460000
1%
0&
#465000
1!
10
b1000 9
b101 ;
1&
#466000
0I
#470000
0(
0&
#475000
0!
00
b1 9
b1000 ;
0<
1&
#476000
1I
b1111 B
b11 -
#480000
1(
0&
#485000
b10 9
b1 ;
1<
1&
#490000
0&
#495000
b1001 9
b10 ;
1&
#496000
0I
#500000
0(
0&
#505000
13
b1010 9
b1001 ;
0<
1&
#510000
0&
#515000
03
11
b1011 9
b1010 ;
1&
#516000
1H
b0 C
#520000
1'
0&
#525000
0:
b1000 8
b1011 ;
1&
#526000
b1 C
#530000
0%
0&
#535000
b1100 8
1&
#536000
b10 C
#540000
0&
#545000
b1110 8
1&
#546000
1I
b11 C
#550000
1(
0&
#555000
1:
b1111 8
01
b1100 9
1<
1&
#556000
0H
b100 C
#560000
1%
0'
0&
#565000
1/
b1111 9
b1100 ;
1&
#566000
0I
#570000
0(
0&
#575000
b1111 "
b1111 .
b1111 7
0/
b1 9
b1111 ;
0<
1&
#576000
1I
#580000
1(
0&
#585000
b10 9
b1 ;
1<
1&
#586000
0I
#590000
0(
0&
#595000
1$
14
b11 9
b10 ;
0<
1&
#600000
0&
#605000
0:
0$
04
1#
12
b100 9
b11 ;
1&
#606000
b0 ?
b0 >
b10101010 =
#610000
0%
0&
#615000
b100 ;
1&
#616000
1H
b1 ?
#620000
1'
0&
#625000
1:
15
1&
#626000
0H
b10 ?
#630000
1%
0'
0&
#635000
0:
05
1&
#636000
1H
b11 ?
b100 >
#640000
0%
1'
0&
#645000
1:
15
1&
#646000
0H
b100 ?
#650000
1%
0'
0&
#655000
0:
05
1&
#656000
1H
b101 ?
b10100 >
#660000
0%
1'
0&
#665000
1:
15
1&
#666000
0H
b110 ?
#670000
1%
0'
0&
#675000
0:
05
1&
#676000
1H
1I
b111 ?
b1010100 >
#680000
0%
1'
1(
0&
#685000
1:
0#
02
b101 9
15
1<
1&
#686000
0H
b100 -
b1000 ?
#690000
1%
0'
0&
#695000
1!
10
b1000 9
b101 ;
1&
#696000
0I
#700000
0(
0&
#705000
0!
00
b1 9
b1000 ;
0<
1&
#706000
1I
b0 A
#710000
1(
0&
#715000
b10 9
b1 ;
1<
1&
#716000
b1 A
#720000
0&
#725000
b1001 9
b10 ;
1&
#726000
b10 A
#730000
0&
#735000
b0 9
b1001 ;
1&
#736000
b11 A
#740000
0&
#745000
b0 ;
1&
#746000
b100 A
#750000
0&
#755000
1&
#756000
0I
b1110110110110001000100 @
b101 A
#760000
0(
0&
#765000
b1 9
0<
1&
#766000
1I
#770000
1(
0&
#775000
b10 9
b1 ;
1<
1&
#776000
0I
#780000
0(
0&
#785000
1$
14
b11 9
b10 ;
0<
1&
#790000
0&
#795000
0:
05
0$
04
1#
12
b100 9
b11 ;
1&
#796000
1I
#800000
0%
1(
0&
#805000
1:
0#
02
b101 9
b100 ;
1<
1&
#806000
0I
#810000
1%
0(
0&
#815000
b110 9
b101 ;
0<
1&
#816000
1I
#820000
1(
0&
#825000
b111 9
b110 ;
1<
1&
#826000
0I
#830000
0(
0&
#835000
0:
1#
12
b100 9
b111 ;
0<
1&
#836000
1I
#840000
0%
1(
0&
#845000
1:
0#
02
b101 9
b100 ;
1<
1&
#850000
1%
0&
#855000
1!
10
b1000 9
b101 ;
1&
#860000
0&
#865000
0!
00
b10 9
b1000 ;
1&
#870000
0&
#875000
b1001 9
b10 ;
1&
#876000
0I
#880000
0(
0&
#885000
13
b1010 9
b1001 ;
0<
1&
#890000
0&
#895000
b1 8
03
11
b1011 9
b1010 ;
1&
#896000
1I
#900000
1(
0&
#905000
01
b1100 9
b0 8
b1011 ;
1<
1&
#906000
0I
#910000
0(
0&
#915000
b1101 9
b1100 ;
0<
1&
#916000
1I
#920000
1(
0&
#925000
b1110 9
b1101 ;
1<
1&
#926000
0I
#930000
0(
0&
#935000
0:
11
b1011 9
b1110 ;
0<
1&
#936000
1I
#940000
0%
1(
0&
#945000
1:
01
b1100 9
b1011 ;
1<
1&
#950000
1%
0&
#955000
1/
b1111 9
b1100 ;
1&
#960000
0&
#965000
0/
b10 9
b0 "
b0 .
b0 7
b1111 ;
1&
#970000
0&
#975000
b1001 9
b10 ;
1&
#980000
0&
#985000
b0 9
b1001 ;
1&
#986000
b101 -
