TASK2/SRC/jtag_debug.vcd
$date
	Fri Jun  5 15:43:33 2026
$end
$version
	Icarus Verilog
$end
$timescale
	1ps
$end
$scope module tb_jtag_debug $end
$var wire 1 ! debug_resume_req $end
$var wire 1 " debug_reset_req $end
$var wire 32 # debug_pc [31:0] $end
$var wire 1 $ debug_halted $end
$var wire 1 % debug_halt_req $end
$var wire 1 & TXD $end
$var wire 1 ' TDO $end
$var wire 5 ( LEDS [4:0] $end
$var reg 1 ) RESET $end
$var reg 1 * RXD $end
$var reg 1 + TCK $end
$var reg 1 , TDI $end
$var reg 1 - TMS $end
$var reg 1 . TRST_N $end
$var reg 32 / expected_pc [31:0] $end
$var reg 32 0 pc0 [31:0] $end
$var reg 32 1 pc1 [31:0] $end
$var reg 32 2 pc2 [31:0] $end
$var reg 32 3 read_pc [31:0] $end
$var reg 1 4 status_bit $end
$scope module dut $end
$var wire 1 ) RESET $end
$var wire 1 * RXD $end
$var wire 1 + TCK $end
$var wire 1 , TDI $end
$var wire 1 - TMS $end
$var wire 1 . TRST_N $end
$var wire 1 5 clk $end
$var wire 1 $ debug_halted $end
$var wire 32 6 debug_pc [31:0] $end
$var wire 1 7 resetn $end
$var wire 1 8 uart_valid $end
$var wire 1 9 uart_ready $end
$var wire 1 : mem_wstrb $end
$var wire 30 ; mem_wordaddr [29:0] $end
$var wire 4 < mem_wmask [3:0] $end
$var wire 32 = mem_wdata [31:0] $end
$var wire 1 > mem_rstrb $end
$var wire 32 ? mem_rdata [31:0] $end
$var wire 32 @ mem_addr [31:0] $end
$var wire 1 A isRAM $end
$var wire 1 B isIO $end
$var wire 1 ! debug_resume_req $end
$var wire 1 " debug_reset_req $end
$var wire 1 % debug_halt_req $end
$var wire 32 C cpu_debug_pc [31:0] $end
$var wire 1 D cpu_debug_halted $end
$var wire 1 & TXD $end
$var wire 1 ' TDO $end
$var wire 32 E RAM_rdata [31:0] $end
$var wire 32 F IO_rdata [31:0] $end
$var reg 5 G LEDS [4:0] $end
$var reg 1 H clk_int $end
$scope module CPU $end
$var wire 1 I LOAD_sign $end
$var wire 32 J aluIn1 [31:0] $end
$var wire 1 5 clk $end
$var wire 1 D debug_halted $end
$var wire 32 K debug_pc [31:0] $end
$var wire 32 L mem_rdata [31:0] $end
$var wire 1 > mem_rstrb $end
$var wire 4 M mem_wmask [3:0] $end
$var wire 1 7 resetn $end
$var wire 1 N writeBackEn $end
$var wire 32 O writeBackData [31:0] $end
$var wire 32 P shifter_in [31:0] $end
$var wire 32 Q shifter [31:0] $end
$var wire 5 R shamt [4:0] $end
$var wire 5 S rs2Id [4:0] $end
$var wire 5 T rs1Id [4:0] $end
$var wire 5 U rdId [4:0] $end
$var wire 32 V nextPC [31:0] $end
$var wire 32 W mem_wdata [31:0] $end
$var wire 1 X mem_halfwordAccess $end
$var wire 1 Y mem_byteAccess $end
$var wire 32 Z mem_addr [31:0] $end
$var wire 32 [ loadstore_addr [31:0] $end
$var wire 32 \ leftshift [31:0] $end
$var wire 1 ] isStore $end
$var wire 1 ^ isSYSTEM $end
$var wire 1 _ isLoad $end
$var wire 1 ` isLUI $end
$var wire 1 a isJALR $end
$var wire 1 b isJAL $end
$var wire 1 c isBranch $end
$var wire 1 d isAUIPC $end
$var wire 1 e isALUreg $end
$var wire 1 f isALUimm $end
$var wire 7 g funct7 [6:0] $end
$var wire 3 h funct3 [2:0] $end
$var wire 1 ! debug_resume_req $end
$var wire 1 " debug_reset_req $end
$var wire 1 % debug_halt_req $end
$var wire 32 i aluPlus [31:0] $end
$var wire 33 j aluMinus [32:0] $end
$var wire 32 k aluIn2 [31:0] $end
$var wire 32 l Uimm [31:0] $end
$var wire 32 m Simm [31:0] $end
$var wire 4 n STORE_wmask [3:0] $end
$var wire 32 o PCplusImm [31:0] $end
$var wire 32 p PCplus4 [31:0] $end
$var wire 1 q LTU $end
$var wire 1 r LT $end
$var wire 16 s LOAD_halfword [15:0] $end
$var wire 32 t LOAD_data [31:0] $end
$var wire 8 u LOAD_byte [7:0] $end
$var wire 32 v Jimm [31:0] $end
$var wire 32 w Iimm [31:0] $end
$var wire 1 x EQ $end
$var wire 32 y Bimm [31:0] $end
$var reg 32 z PC [31:0] $end
$var reg 32 { aluOut [31:0] $end
$var reg 1 | halted $end
$var reg 32 } instr [31:0] $end
$var reg 32 ~ rs1 [31:0] $end
$var reg 32 !" rs2 [31:0] $end
$var reg 3 "" state [2:0] $end
$var reg 1 #" takeBranch $end
$var integer 32 $" i [31:0] $end
$scope function flip32 $end
$var reg 32 %" x [31:0] $end
$upscope $end
$upscope $end
$scope module JTAG $end
$var wire 1 + TCK $end
$var wire 1 , TDI $end
$var wire 1 - TMS $end
$var wire 1 . TRST_N $end
$var wire 1 D debug_halted $end
$var wire 32 &" debug_pc [31:0] $end
$var wire 1 '" tap_capture_dr_o $end
$var wire 4 (" tap_ir_o [3:0] $end
$var wire 1 )" tap_shift_dr_o $end
$var wire 1 *" tap_update_dr_o $end
$var wire 1 +" state_update_ir $end
$var wire 1 ," state_update_dr $end
$var wire 1 -" state_shift_ir $end
$var wire 1 ." state_shift_dr $end
$var wire 1 /" state_capture_ir $end
$var wire 1 0" state_capture_dr $end
$var reg 1 ' TDO $end
$var reg 1 1" bypass_bit $end
$var reg 3 2" dbg_ctrl_active [2:0] $end
$var reg 4 3" dbg_ctrl_hold [3:0] $end
$var reg 3 4" dbg_ctrl_shift [2:0] $end
$var reg 32 5" dbg_pc_shift [31:0] $end
$var reg 1 6" dbg_status_shift $end
$var reg 1 % debug_halt_req $end
$var reg 1 " debug_reset_req $end
$var reg 1 ! debug_resume_req $end
$var reg 32 7" idcode_shift [31:0] $end
$var reg 4 8" ir_reg [3:0] $end
$var reg 4 9" ir_shift [3:0] $end
$var reg 4 :" tap_state [3:0] $end
$var reg 1 ;" tdo_mux $end
$scope function next_state $end
$var reg 4 <" current [3:0] $end
$var reg 1 =" tms $end
$upscope $end
$upscope $end
$scope module RAM $end
$var wire 1 5 clk $end
$var wire 32 >" mem_addr [31:0] $end
$var wire 1 ?" mem_rstrb $end
$var wire 32 @" mem_wdata [31:0] $end
$var wire 4 A" mem_wmask [3:0] $end
$var wire 30 B" word_addr [29:0] $end
$var reg 32 C" mem_rdata [31:0] $end
$upscope $end
$scope module UART $end
$var wire 1 5 i_clk $end
$var wire 8 D" i_data [7:0] $end
$var wire 1 E" i_rst $end
$var wire 1 8 i_valid $end
$var wire 1 & o_uart_tx $end
$var reg 12 F" cnt [11:0] $end
$var reg 10 G" data [9:0] $end
$var reg 1 9 o_ready $end
$upscope $end
$upscope $end
$scope task fail $end
$upscope $end
$scope task jtag_cycle $end
$upscope $end
$scope task jtag_read_dr1 $end
$upscope $end
$scope task jtag_read_dr32 $end
$upscope $end
$scope task jtag_reset_tap $end
$upscope $end
$scope task jtag_set_ir $end
$upscope $end
$scope task jtag_write_ctrl $end
$upscope $end
$scope task wait_core_cycles $end
$upscope $end
$scope task wait_for_halted $end
$upscope $end
$scope task wait_for_running $end
$upscope $end
$upscope $end
$enddefinitions $end
#0
$dumpvars
bx G"
b0 F"
0E"
bx D"
bx C"
b0 B"
b0 A"
bx @"
1?"
b0 >"
x="
bx <"
x;"
bx :"
bx 9"
bx 8"
bx 7"
x6"
bx 5"
bx 4"
bx 3"
bx 2"
x1"
x0"
x/"
x."
x-"
x,"
x+"
x*"
x)"
bx ("
x'"
b0 &"
bx %"
b100000 $"
x#"
b0 ""
bx !"
bx ~
bx }
0|
bx {
b0 z
bx0 y
xx
bx w
bx0 v
bx u
bx t
bx s
xr
xq
b100 p
bx o
bx n
bx m
bx000000000000 l
bx k
bx j
bx i
bx h
bx g
xf
xe
xd
xc
xb
xa
x`
x_
x^
x]
bx \
bx [
b0 Z
xY
xX
bx W
bx V
bx U
bx T
bx S
bx R
bx Q
bx P
bx O
0N
b0 M
bx L
b0 K
bx J
xI
0H
bx G
b0 F
bx E
0D
b0 C
0B
1A
b0 @
bx ?
1>
bx =
b0 <
b0 ;
0:
x9
08
17
b0 6
05
x4
bx 3
bx 2
bx 1
bx 0
bx /
0.
1-
0,
0+
1*
0)
bx (
x'
x&
x%
0$
b0 #
x"
x!
$end
#5000
0I
b0x0000x00xx0xxx t
b0xx0xxx u
0?"
b0x0000x00xx0xxx s
0>
b10000100110111 ?
b10000100110111 L
b1 ""
b10000100110111 E
b10000100110111 C"
b111111111111 F"
15
1H
#10000
05
0H
#15000
b0x000xx00xx0xxx s
b0x000000000 F
b0x000xx00xx0xxx ?
b0x000xx00xx0xxx L
bx B"
xA
xB
bx ;
bx @
bx Z
bx >"
b0 k
b10000000000000 O
b0x000xx00xx0xxx t
b1111 n
b100 V
0Y
0X
0#"
b0 R
b10000000000000 o
b0x {
0e
0f
0c
0a
0b
0d
1`
0_
0]
0^
b10000000000000 l
b0 w
b10 m
b10 y
b10000000000000 v
b0 T
b0 S
b10 U
b10 h
b0 g
b0xxxxxxxxx G"
b10011100010 F"
b10 ""
b10000100110111 }
15
1H
#20000
05
0H
#25000
b110111 u
b10000100110111 s
b10000100110111 t
b0 F
1N
b10000100110111 ?
b10000100110111 L
b0 B"
1A
0B
b0 ;
b0 \
b0 D"
b0 @
b0 Z
b0 >"
b0 {
0r
b0 Q
b0 =
b0 W
b0 @"
0q
1x
b0 %"
b0 P
b11 ""
b0 !"
b0 [
b0 i
b0 j
b0 J
b0 ~
b10011100001 F"
15
1H
#30000
05
0H
#35000
0N
b1 B"
b1 ;
b100 @
b100 Z
b100 >"
1?"
1>
b1000 V
b10011100000 F"
b0 ""
b10000000000100 o
b1000 p
b100 #
b100 6
b100 C
b100 K
b100 &"
b100 z
15
1H
#40000
05
0H
#45000
b10011 u
0?"
b100010011 s
b10000000000000010000000100010011 t
0>
b10000000000000010000000100010011 ?
b10000000000000010000000100010011 L
b1 ""
b10000000000000010000000100010011 E
b10000000000000010000000100010011 C"
b10011011111 F"
15
1H
#50000
05
0H
#55000
b0 u
b0 s
b0 ?
b0 L
b111111111111111111111000000000 B"
0A
1B
b111111111111111111111000000000 ;
1q
0x
b11111111111111111111100000000000 @
b11111111111111111111100000000000 Z
b11111111111111111111100000000000 >"
b10000000000000010000000000000100 o
b11111111111111111111100000000000 O
b100000000000000000000100000000000 j
b11111111111111111111100000000000 {
b0 t
b1 n
b11111111111111111111100000000000 i
b11111111111111111111100000000000 k
b11111111111111111111100000000000 [
1Y
0#"
1f
0`
b10000000000000010000000000000000 l
b11111111111111111111100000000000 w
b11111111111111111111100000000010 m
b11111111111111111111000000000010 y
b11111111111100010000000000000000 v
b10 T
b0 h
b1000000 g
b10011011110 F"
b10 ""
b10000000000000010000000100010011 }
15
1H
#60000
05
0H
#65000
b10011 t
b10011 u
b100010011 s
b1100000000000 O
1N
b10000000000000010000000100010011 ?
b10000000000000010000000100010011 L
b11000000000 B"
1A
0B
b11000000000 ;
b1000000000000000000 \
b1100000000000 @
b1100000000000 Z
b1100000000000 >"
b10000000000000 Q
b1100000000000 {
b10000000000000 %"
b10000000000000 P
b11 ""
b1100000000000 [
b1100000000000 i
b100000000000000000010100000000000 j
b10000000000000 J
b10000000000000 ~
b10011011101 F"
15
1H
#70000
05
0H
#75000
0N
b10 B"
b10 ;
b1000 @
b1000 Z
b1000 >"
1?"
1>
b1100 V
b10011011100 F"
b0 ""
b10000000000000010000000000001000 o
b1100 p
b1000 #
b1000 6
b1000 C
b1000 K
b1000 &"
b1000 z
15
1H
#80000
05
0H
#85000
1I
b11111111111111111111111111101111 t
b11101111 u
0?"
b11101111 s
0>
b10010000000000000011101111 ?
b10010000000000000011101111 L
b1 ""
b10010000000000000011101111 E
b10010000000000000011101111 C"
b10011011011 F"
15
1H
#90000
05
0H
#95000
b10000000000000000000000 \
b1000000000 %"
b100000001001 B"
b100000001001 ;
b1000000000 Q
0q
b10000000100100 @
b10000000100100 Z
b10000000100100 >"
b101100 V
b1100 O
b1111111011100 j
b10000000100100 {
b10000000100100 i
b100100 k
b10000000100100 [
b100 R
b101100 o
0f
1b
b10010000000000000000000000 l
b100100 w
b100001 m
b100000100000 y
b100100 v
b0 T
b100 S
b1 U
b1 g
b10011011010 F"
b10 ""
b10010000000000000011101111 }
15
1H
#100000
05
0H
1.
#105000
1N
b1001 B"
b1001 ;
b0 \
b100100 @
b100100 Z
b100100 >"
1r
b0 Q
1q
b100100 {
b0 %"
b0 P
1;"
b11 ""
b100100 [
b100100 i
b111111111111111111111111111011100 j
b0 J
b0 ~
b10011011001 F"
0'"
00"
0)"
0."
0*"
0,"
0/"
0-"
0+"
b0 :"
1="
15
1H
1+
#110000
1'
0+
05
0H
#115000
0N
b1011 B"
b1011 ;
b101100 @
b101100 Z
b101100 >"
1?"
1>
b1010000 V
b110000 O
b10011011000 F"
b0 ""
b1010000 o
b110000 p
b101100 #
b101100 6
b101100 C
b101100 K
b101100 &"
b101100 z
15
1H
#120000
b0 <"
1+
05
0H
#125000
0I
b10011 t
b10011 u
0?"
b100010011 s
0>
b11111111000000010000000100010011 ?
b11111111000000010000000100010011 L
b1 ""
b11111111000000010000000100010011 E
b11111111000000010000000100010011 C"
b10011010111 F"
0+
15
1H
#130000
05
0H
#135000
b0 t
b0 u
b0x000000000 s
b0x000000000 F
b0x000000000 ?
b0x000000000 L
0r
b111111111111111111111111111100 B"
0A
1B
b111111111111111111111111111100 ;
b11111111111111111111111111110000 @
b11111111111111111111111111110000 Z
b11111111111111111111111111110000 >"
b11111111111111111111111111110000 O
b100000000000000000000000000010000 j
b11111111111111111111111111110000 {
b110000 V
b11111111111111111111111111110000 i
b11111111111111111111111111110000 k
b11111111111111111111111111110000 [
b10000 R
b11111111000000010000000000101100 o
1f
0b
b11111111000000010000000000000000 l
b11111111111111111111111111110000 w
b11111111111111111111111111100010 m
b11111111111111111111011111100010 y
b11111111111100010000011111110000 v
b10 T
b10000 S
b10 U
b1111111 g
b10011010110 F"
b10 ""
b11111111000000010000000100010011 }
1+
15
1H
#140000
0+
05
0H
#145000
b10011 t
b10011 u
b100010011 s
b1011111110000 O
1N
b11111111000000010000000100010011 ?
b11111111000000010000000100010011 L
b10111111100 B"
1A
0B
b10111111100 ;
b1011111110000 @
b1011111110000 Z
b1011111110000 >"
b1011111110000 {
b1100000000000 %"
b1100000000000 P
b11 ""
b1011111110000 [
b1011111110000 i
b100000000000000000001100000010000 j
b1100000000000 J
b1100000000000 ~
b10011010101 F"
15
1H
#150000
1+
05
0H
#155000
0N
b1100 B"
b1100 ;
b110000 @
b110000 Z
b110000 >"
1?"
1>
b110100 V
b10011010100 F"
b0 ""
b11111111000000010000000000110000 o
b110100 p
b110000 #
b110000 6
b110000 C
b110000 K
b110000 &"
b110000 z
0+
15
1H
#160000
05
0H
#165000
b100011 t
b100011 u
0?"
b10011000100011 s
0>
b100010010011000100011 ?
b100010010011000100011 L
b1 ""
b100010010011000100011 E
b100010010011000100011 C"
b10011010011 F"
1+
15
1H
#170000
0+
05
0H
#175000
b0 F
b0 O
b1100000000000000000000 \
b110000000000 %"
b11000000011 B"
b11000000011 ;
b110000000000 Q
0q
b1100000001100 @
b1100000001100 Z
b1100000001100 >"
b1011111111111 j
b100010010011000100011 t
b1111 n
b111100 o
b1100000000001 i
b1 k
b1100000001100 [
0Y
b1 R
b0 {
0f
1]
b100010010000000000000 l
b1 w
b1100 m
b1100 y
b10010100000000000 v
b1 S
b1100 U
b10 h
b0 g
b10011010010 F"
b10 ""
b100010010011000100011 }
0-
15
1H
#180000
b1 :"
0="
1+
05
0H
#185000
b0x000000000 F
b10111111111 B"
b10111111111 ;
b11111110100000000000000000000 \
b1100 D"
b1011111111100 @
b1011111111100 Z
b1011111111100 >"
b101111111000 Q
b1100 =
b1100 W
b1100 @"
b101111111000 %"
b1011111110000 P
b11 ""
b1100 !"
b1011111111100 [
b1011111110001 i
b1011111101111 j
b1011111110000 J
b1011111110000 ~
b10011010001 F"
0+
15
1H
#190000
05
0H
#195000
b1111 A"
1:
b1111 <
b1111 M
b111000 V
b10011010000 F"
b110 ""
b1000000 o
b111000 p
b110100 #
b110100 6
b110100 C
b110100 K
b110100 &"
b110100 z
15
1H
#200000
05
0H
#205000
b1101 B"
b1101 ;
b110100 @
b110100 Z
b110100 >"
1?"
b0 A"
1>
0:
b0 <
b0 M
b0 ""
b10011001111 F"
15
1H
#210000
05
0H
#215000
b10010000100011 s
b100000010010010000100011 t
0?"
0>
b100000010010010000100011 ?
b100000010010010000100011 L
b10011001110 F"
b100000010010010000100011 E
b100000010010010000100011 C"
b1 ""
15
1H
#220000
05
0H
#225000
b11101000000000000000000000000000 \
b10111 %"
b10111111110 B"
b10111111110 ;
b10111 Q
b1011111111000 @
b1011111111000 Z
b1011111111000 >"
b1011111101000 j
b111100 o
b1011111111000 i
b1000 k
b1011111111000 [
b1000 R
b100000010010000000000000 l
b1000 w
b1000 m
b1000 y
b10010000000001000 v
b1000 S
b1000 U
b10 ""
b100000010010010000100011 }
b10011001101 F"
15
1H
#230000
05
0H
#235000
b0 D"
b0 =
b0 W
b0 @"
b10011001100 F"
b11 ""
b0 !"
15
1H
#240000
05
0H
#245000
b1111 A"
1:
b1111 <
b1111 M
b111100 V
b110 ""
b1000000 o
b111100 p
b111000 #
b111000 6
b111000 C
b111000 K
b111000 &"
b111000 z
b10011001011 F"
15
1H
#250000
05
0H
#255000
b1110 B"
b1110 ;
b111000 @
b111000 Z
b111000 >"
1?"
b0 A"
1>
0:
b0 <
b0 M
b10011001010 F"
b0 ""
15
1H
#260000
05
0H
#265000
b10011 u
0?"
b10000010011 s
b1000000010000010000010011 t
0>
b1000000010000010000010011 ?
b1000000010000010000010011 L
b1 ""
b1000000010000010000010011 E
b1000000010000010000010011 C"
b10011001001 F"
15
1H
#270000
05
0H
#275000
b0 F
b1100000000000 O
b0 \
b0 %"
b11000000000 B"
b11000000000 ;
b0 Q
b1100000000000 @
b1100000000000 Z
b1100000000000 >"
b1011111100000 j
b10011 t
b1 n
b1000000010000000000111000 o
b1100000000000 [
b1100000000000 i
b10000 k
1Y
b10000 R
b1100000000000 {
1f
0]
b1000000010000000000000000 l
b10000 w
b10000000000010000 v
b10000 S
b0 h
b10011001000 F"
b10 ""
b1000000010000010000010011 }
15
1H
#280000
05
0H
#285000
1N
b11 ""
b10011000111 F"
15
1H
#290000
05
0H
#295000
b0x000000000 F
0N
b1111 B"
b1111 ;
b111100 @
b111100 Z
b111100 >"
1?"
1>
b1000000 V
b10011000110 F"
b0 ""
b1000000010000000000111100 o
b1000000 p
b111100 #
b111100 6
b111100 C
b111100 K
b111100 &"
b111100 z
15
1H
#300000
05
0H
#305000
1I
b11111111111111111111111110110111 t
b10110111 u
0?"
b11110110111 s
0>
b10000000000011110110111 ?
b10000000000011110110111 L
b1 ""
b10000000000011110110111 E
b10000000000011110110111 C"
b10011000101 F"
15
1H
#310000
05
0H
#315000
b11111110100000000000000000000000 \
b101111111 %"
b10111111101 B"
b10111111101 ;
b101111111 Q
b1011111110100 @
b1011111110100 Z
b1011111110100 >"
b10000000000000000000000 O
b10000000000000000111100 o
b1011111101100 j
b1011111110100 {
b1011111110100 i
b100 k
b1011111110100 [
b100 R
0f
1`
b10000000000000000000000 l
b100 w
b1111 m
b100000001110 y
b100 v
b0 T
b100 S
b1111 U
b10011000100 F"
b10 ""
b10000000000011110110111 }
15
1H
#320000
05
0H
#325000
b0 F
1N
b1 B"
b1 ;
b0 \
b100 @
b100 Z
b100 >"
1r
b0 Q
1q
b100 {
b0 %"
b0 P
b11 ""
b100 [
b100 i
b111111111111111111111111111111100 j
b0 J
b0 ~
b10011000011 F"
15
1H
#330000
05
0H
#335000
0N
b10000 B"
b10000 ;
b1000000 @
b1000000 Z
b1000000 >"
1?"
1>
b1000100 V
b10011000010 F"
b0 ""
b10000000000000001000000 o
b1000100 p
b1000000 #
b1000000 6
b1000000 C
b1000000 K
b1000000 &"
b1000000 z
15
1H
#340000
05
0H
#345000
b11111111111111111111111110010011 t
b10010011 u
0?"
b1000011110010011 s
0>
b100010001111000011110010011 ?
b100010001111000011110010011 L
b1 ""
b100010001111000011110010011 E
b100010001111000011110010011 C"
b10011000001 F"
15
1H
#350000
05
0H
#355000
b10001 B"
b10001 ;
b1000100 @
b1000100 Z
b1000100 >"
b100010001111000000001000000 o
b1000100 O
b111111111111111111111111110111100 j
b1000100 {
b1000100 i
b1000100 k
b1000100 [
1f
0`
b100010001111000000000000000 l
b1000100 w
b1001111 m
b100001001110 y
b1111000000001000100 v
b1111 T
b10 g
b10011000000 F"
b10 ""
b100010001111000011110010011 }
15
1H
#360000
05
0H
#365000
0I
b0 t
b0 u
b0 s
b10000000000000001000100 O
1N
b0 ?
b0 L
b100000000000000010001 B"
0A
1B
b100000000000000010001 ;
b10000000000000 \
b10000000000000001000100 @
b10000000000000001000100 Z
b10000000000000001000100 >"
0r
b1000000000000000000 Q
0q
b10000000000000001000100 {
b1000000000000000000 %"
b10000000000000000000000 P
b11 ""
b10000000000000001000100 [
b10000000000000001000100 i
b1111111111111110111100 j
b10000000000000000000000 J
b10000000000000000000000 ~
b10010111111 F"
15
1H
#370000
05
0H
#375000
1I
b11111111111111111111111110010011 t
b10010011 u
b1000011110010011 s
b100010001111000011110010011 ?
b100010001111000011110010011 L
1?"
0N
b10001 B"
1A
0B
b10001 ;
b1000100 @
b1000100 Z
b1000100 >"
1>
b1001000 V
b10010111110 F"
b0 ""
b100010001111000000001000100 o
b1001000 p
b1000100 #
b1000100 6
b1000100 C
b1000100 K
b1000100 &"
b1000100 z
15
1H
#380000
05
0H
#385000
0I
b110111 t
b110111 u
0?"
b10011100110111 s
0>
b101101110010011100110111 ?
b101101110010011100110111 L
b1 ""
b101101110010011100110111 E
b101101110010011100110111 C"
b10010111101 F"
15
1H
#390000
05
0H
#395000
b0 ?
b0 L
b100000000000000000000 \
b100000000000 %"
b100000000000000000010 B"
0A
1B
b100000000000000000010 ;
b100000000000 Q
b0 s
b0 u
b10000000000000000001011 @
b10000000000000000001011 Z
b10000000000000000001011 >"
b101101110010000000000000 O
b101101110010000001000100 o
b1111111111111111110101 j
b0 t
b1111 n
b10000000000000000001011 i
b1011 k
b10000000000000000001011 [
0Y
b1011 R
b0 {
0f
1`
b101101110010000000000000 l
b1011 w
b1110 m
b1110 y
b1110010100000001010 v
b1110 T
b1011 S
b1110 U
b10 h
b0 g
b10010111100 F"
b10 ""
b101101110010011100110111 }
15
1H
#400000
05
0H
#405000
b10110111 s
b101101110010011100110111 t
1N
b101101110010011100110111 ?
b101101110010011100110111 L
b10 B"
1A
0B
b10 ;
b1 {
b0 \
b1011 @
b1011 Z
b1011 >"
1r
b0 Q
1q
b0 %"
b0 P
b11 ""
b1011 [
b1011 i
b111111111111111111111111111110101 j
b0 J
b0 ~
b10010111011 F"
15
1H
#410000
05
0H
#415000
0N
b10010 B"
b10010 ;
b1001000 @
b1001000 Z
b1001000 >"
1?"
1>
b1001100 V
b10010111010 F"
b0 ""
b101101110010000001001000 o
b1001100 p
b1001000 #
b1001000 6
b1001000 C
b1001000 K
b1001000 &"
b1001000 z
15
1H
#420000
05
0H
#425000
1I
b10110000 u
0?"
b1011000000000111 s
b10110000000001110000011100010011 t
0>
b10110000000001110000011100010011 ?
b10110000000001110000011100010011 L
b1 ""
b10110000000001110000011100010011 E
b10110000000001110000011100010011 C"
b10010111001 F"
15
1H
#430000
05
0H
#435000
0I
b0 ?
b0 L
0r
b111111111111111111111011000000 B"
0A
1B
b111111111111111111111011000000 ;
b0 s
b0 u
b11111111111111111111101100000000 @
b11111111111111111111101100000000 Z
b11111111111111111111101100000000 >"
b10110000000001110000000001001000 o
b11111111111111111111101100000000 O
b100000000000000000000010100000000 j
b0 t
b1 n
b11111111111111111111101100000000 i
b11111111111111111111101100000000 k
b11111111111111111111101100000000 [
1Y
b0 R
b11111111111111111111101100000000 {
1f
0`
b10110000000001110000000000000000 l
b11111111111111111111101100000000 w
b11111111111111111111101100001110 m
b11111111111111111111001100001110 y
b11111111111101110000001100000000 v
b0 S
b0 h
b1011000 g
b10010111000 F"
b10 ""
b10110000000001110000011100010011 }
15
1H
#440000
05
0H
#445000
b10011 t
b10011 u
b11100010011 s
b101101110001101100000000 O
1N
b10110000000001110000011100010011 ?
b10110000000001110000011100010011 L
b1011011100011011000000 B"
1A
0B
b1011011100011011000000 ;
b1001110110100000000 \
b101101110001101100000000 @
b101101110001101100000000 Z
b101101110001101100000000 >"
b101101110010000000000000 Q
b101101110001101100000000 {
b101101110010000000000000 %"
b101101110010000000000000 P
b11 ""
b101101110001101100000000 [
b101101110001101100000000 i
b100000000101101110010010100000000 j
b101101110010000000000000 J
b101101110010000000000000 ~
b10010110111 F"
15
1H
#450000
05
0H
#455000
0N
b10011 B"
b10011 ;
b1001100 @
b1001100 Z
b1001100 >"
1?"
1>
b1010000 V
b10010110110 F"
b0 ""
b10110000000001110000000001001100 o
b1010000 p
b1001100 #
b1001100 6
b1001100 C
b1001100 K
b1001100 &"
b1001100 z
15
1H
#460000
05
0H
#465000
b100011 t
b100011 u
0?"
b1010000000100011 s
0>
b111001111010000000100011 ?
b111001111010000000100011 L
b1 ""
b111001111010000000100011 E
b111001111010000000100011 C"
b10010110101 F"
15
1H
#470000
05
0H
#475000
b0 O
b111011010000000000000000000000 \
b1011011100 %"
b1011011100100000000000 B"
b1011011100100000000000 ;
b1011011100 Q
0q
1I
b101101110010000000000000 @
b101101110010000000000000 Z
b101101110010000000000000 >"
b101101110001111111110010 j
b111001111010000000100011 t
b1111 n
b1001100 o
b101101110010000000001110 i
b1110 k
b101101110010000000000000 [
0Y
b1110 R
b0 {
0f
1]
b111001111010000000000000 l
b1110 w
b0 m
b0 y
b1111010000000001110 v
b1111 T
b1110 S
b0 U
b10 h
b0 g
b10010110100 F"
b10 ""
b111001111010000000100011 }
15
1H
#480000
05
0H
#485000
0I
b0 u
b0 s
b0 t
b0 ?
b0 L
b100000000000000010001 B"
0A
1B
b100000000000000010001 ;
b100000000000000000000000 \
b101101110001101100000000 =
b101101110001101100000000 W
b101101110001101100000000 @"
b10000000000000001000100 @
b10000000000000001000100 Z
b10000000000000001000100 >"
b100000000 Q
b100000000 %"
b10000000000000001000100 P
b11 ""
b101101110001101100000000 !"
b10000000000000001000100 [
b10000000000000001010010 i
b10000000000000000110110 j
b10000000000000001000100 J
b10000000000000001000100 ~
b10010110011 F"
15
1H
#490000
05
0H
#495000
1:
b1111 <
b1111 M
b1010100 V
b10010110010 F"
b110 ""
b1010000 o
b1010100 p
b1010000 #
b1010000 6
b1010000 C
b1010000 K
b1010000 &"
b1010000 z
15
1H
#500000
05
0H
#505000
1I
b100011 u
b1010000000100011 s
b111001111010000000100011 t
b0x000000000 F
b111001111010000000100011 ?
b111001111010000000100011 L
1?"
b10100 B"
1A
0B
b10100 ;
b1010000 @
b1010000 Z
b1010000 >"
1>
0:
b0 <
b0 M
b0 ""
b10010110001 F"
b0 (
b0 G
15
1H
#510000
05
0H
#515000
0I
b10110111 u
b11110110111 s
b10000000000011110110111 t
0?"
0>
b10000000000011110110111 ?
b10000000000011110110111 L
b10010110000 F"
b10000000000011110110111 E
b10000000000011110110111 C"
b1 ""
15
1H
#520000
05
0H
#525000
b0 u
b0 s
b0 F
b0 ?
b0 L
b100000000000000010000000000000 \
b1000000000000000100 %"
b100000000000000010010 B"
0A
1B
b100000000000000010010 ;
b1000000000000000100 Q
0I
b10000000000000001001000 @
b10000000000000001001000 Z
b10000000000000001001000 >"
b10000000000000000000000 O
b10000000000000001000000 j
b0 t
b1 n
b10000000000000001010000 o
b10000000000000001001000 i
b100 k
b10000000000000001001000 [
1Y
b100 R
b10000000000000001001000 {
1`
0]
b10000000000000000000000 l
b100 w
b1111 m
b100000001110 y
b100 v
b0 T
b100 S
b1111 U
b0 h
b10 ""
b10000000000011110110111 }
b10010101111 F"
15
1H
#530000
05
0H
#535000
1I
b11111111111111111111111110110111 t
b10110111 u
b11110110111 s
1N
b10000000000011110110111 ?
b10000000000011110110111 L
b1 B"
1A
0B
b1 ;
b0 \
b0 =
b0 W
b0 @"
b100 @
b100 Z
b100 >"
1r
b0 Q
1q
b100 {
b0 %"
b0 P
b10010101110 F"
b11 ""
b0 !"
b100 [
b100 i
b111111111111111111111111111111100 j
b0 J
b0 ~
15
1H
#540000
05
0H
#545000
b0x000000000 F
0N
b10101 B"
b10101 ;
b1010100 @
b1010100 Z
b1010100 >"
1?"
1>
b1011000 V
b0 ""
b10000000000000001010100 o
b1011000 p
b1010100 #
b1010100 6
b1010100 C
b1010100 K
b1010100 &"
b1010100 z
b10010101101 F"
15
1H
#550000
05
0H
#555000
b11111111111111111111111110010011 t
b10010011 u
b1000011110010011 s
0?"
0>
b100000001111000011110010011 ?
b100000001111000011110010011 L
b10010101100 F"
b100000001111000011110010011 E
b100000001111000011110010011 C"
b1 ""
15
1H
#560000
05
0H
#565000
b0 F
b10000 B"
b10000 ;
b1000000 @
b1000000 Z
b1000000 >"
b100000001111000000001010100 o
b1000000 O
b111111111111111111111111111000000 j
b1000000 {
b1000000 i
b1000000 k
b1000000 [
b0 R
1f
0`
b100000001111000000000000000 l
b1000000 w
b1001111 m
b100001001110 y
b1111000000001000000 v
b1111 T
b0 S
b10 g
b10 ""
b100000001111000011110010011 }
b10010101011 F"
15
1H
#570000
05
0H
